this function parses coordinates from DMS to decimal degrees — dms2dd • BarnebyLives
…
rm(coords, coords_formatted)

# example with tibble input
data(uncleaned_collection_examples)

dms2dd(uncleaned_collection_examples) |>
  dplyr::select(latitude_dd, longitude_dd, latitude_dms, longitude_dms)
#> argument to `lat` not found. detected and using:  Latitude
#> argument to `long` not found. detected and using:  Longitude
#> # A tibble: 117 × 4
#>    latitude_dd longitude_dd latitude_dms longitude_dms
#>          <dbl>        <dbl> <chr>        <chr>        
#>  1        39.3        -120. N 39°17'5    W 119°43'56  
#>  2        39.3        -120. N 39°17'2    W 119°43'54  
#>  3        39.3        -120. N 39°17'2    W 119°43'54  
#>  4        39.3        -120. N 39°17'3    W 119°44'1   
#>  5        39.3        -120. N 39°19'36   W 119°47'7   
#>  6        39.3        -120. N 39°19'36   W 119°47'7   
#>  7        39.3        -120. N 39°19'36   W 119°47'7   
#>  8        39.3        -120. N 39°19'36   W 119°47'7   
#>  9        39.3        -120. N 39°19'36   W 119°47'7   
#> 10        39.3        -120. N 39°19'36   W 119°47'7   
#> # ℹ 107 more rows
…
